D:\Workspace\camunda-forms\forms\src\main\java\de\hummli\camunda\forms\LoggerDelegate.java
D:\Workspace\camunda-forms\forms\src\main\java\de\hummli\camunda\forms\CustomValidator.java
D:\Workspace\camunda-forms\forms\src\main\java\de\hummli\camunda\forms\AssignmentHandler.java
